; Engine configuration file.
; It's best edited using the editor UI and not directly,
; since the parameters that go here are not all obvious.
;
; Format:
;   [section] ; section goes between []
;   param=value ; assign values to parameters

config_version=5

[application]

config/name="Project01.1"
config/features=PackedStringArray("4.0", "Forward Plus")
config/icon="res://icon.svg"

[autoload]

GLOBAL="*res://src/script/global.gd"

[display]

window/size/viewport_width=640
window/size/viewport_height=416
window/stretch/mode="canvas_items"
window/stretch/scale=2.0

[input]

ui_bomb={
"deadzone": 0.5,
"events": [Object(InputEventKey,"resource_local_to_scene":false,"resource_name":"","device":-1,"window_id":0,"alt_pressed":false,"shift_pressed":false,"ctrl_pressed":false,"meta_pressed":false,"pressed":false,"keycode":0,"physical_keycode":82,"key_label":0,"unicode":114,"echo":false,"script":null)
]
}
ui_debug_1={
"deadzone": 0.5,
"events": [Object(InputEventKey,"resource_local_to_scene":false,"resource_name":"","device":-1,"window_id":0,"alt_pressed":false,"shift_pressed":false,"ctrl_pressed":false,"meta_pressed":false,"pressed":false,"keycode":0,"physical_keycode":66,"key_label":0,"unicode":98,"echo":false,"script":null)
]
}
ui_debug_2={
"deadzone": 0.5,
"events": [Object(InputEventKey,"resource_local_to_scene":false,"resource_name":"","device":-1,"window_id":0,"alt_pressed":false,"shift_pressed":false,"ctrl_pressed":false,"meta_pressed":false,"pressed":false,"keycode":0,"physical_keycode":78,"key_label":0,"unicode":110,"echo":false,"script":null)
]
}

[layer_names]

2d_physics/layer_1="body_player"
2d_physics/layer_2="body_foe"
2d_physics/layer_9="hitbox_player"
2d_physics/layer_10="hitbox_foe"
2d_physics/layer_17="hit_player"
2d_physics/layer_18="hit_foe"

[rendering]

textures/canvas_textures/default_texture_filter=0
