[gd_scene load_steps=7 format=3 uid="uid://l1icx82jtx30"]

[ext_resource type="Texture2D" uid="uid://hjothso4hppc" path="res://res/img/sprite/weapon.png" id="1_dqgdm"]
[ext_resource type="Script" path="res://src/script/rock.gd" id="1_g3c7h"]

[sub_resource type="Animation" id="Animation_l666k"]
length = 0.001
tracks/0/type = "value"
tracks/0/imported = false
tracks/0/enabled = true
tracks/0/path = NodePath("sprite/body:region_rect")
tracks/0/interp = 1
tracks/0/loop_wrap = true
tracks/0/keys = {
"times": PackedFloat32Array(0),
"transitions": PackedFloat32Array(1),
"update": 0,
"values": [Rect2(16, 86, 14, 14)]
}

[sub_resource type="Animation" id="Animation_8omdt"]
resource_name = "run"
length = 0.4
loop_mode = 1
tracks/0/type = "value"
tracks/0/imported = false
tracks/0/enabled = true
tracks/0/path = NodePath("sprite/body:region_rect")
tracks/0/interp = 1
tracks/0/loop_wrap = true
tracks/0/keys = {
"times": PackedFloat32Array(0, 0.1, 0.2, 0.3, 0.4),
"transitions": PackedFloat32Array(1, 1, 1, 1, 1),
"update": 1,
"values": [Rect2(0, 86, 14, 14), Rect2(16, 86, 14, 14), Rect2(32, 86, 14, 14), Rect2(48, 86, 14, 14), Rect2(0, 86, 14, 14)]
}

[sub_resource type="AnimationLibrary" id="AnimationLibrary_r04xm"]
_data = {
"RESET": SubResource("Animation_l666k"),
"run": SubResource("Animation_8omdt")
}

[sub_resource type="CircleShape2D" id="CircleShape2D_wwxg5"]
radius = 7.07107

[node name="rock" type="Area2D"]
z_index = 6
collision_layer = 65536
collision_mask = 512
script = ExtResource("1_g3c7h")

[node name="sprite" type="Node2D" parent="."]

[node name="body" type="Sprite2D" parent="sprite"]
texture = ExtResource("1_dqgdm")
region_enabled = true
region_rect = Rect2(16, 86, 14, 14)

[node name="def" type="AnimationPlayer" parent="."]
autoplay = "run"
libraries = {
"": SubResource("AnimationLibrary_r04xm")
}

[node name="hit_shape" type="CollisionShape2D" parent="."]
shape = SubResource("CircleShape2D_wwxg5")
debug_color = Color(1, 1, 0, 0.419608)

[node name="timeout" type="Timer" parent="."]
one_shot = true

[connection signal="area_entered" from="." to="." method="_on_area_entered"]
[connection signal="timeout" from="timeout" to="." method="_on_timeout_timeout"]
