[gd_scene load_steps=6 format=3 uid="uid://iex4812i80po"]

[ext_resource type="Texture2D" uid="uid://c77nd8ox76bxj" path="res://res/img/cards/cards01.png" id="1_0kp77"]
[ext_resource type="Texture2D" uid="uid://be2w2fuqk3wvb" path="res://res/img/cards/cards99.png" id="1_m0aji"]

[sub_resource type="Animation" id="Animation_noi60"]
length = 0.001
tracks/0/type = "value"
tracks/0/imported = false
tracks/0/enabled = true
tracks/0/path = NodePath("background/background:position")
tracks/0/interp = 1
tracks/0/loop_wrap = true
tracks/0/keys = {
"times": PackedFloat32Array(0),
"transitions": PackedFloat32Array(1),
"update": 0,
"values": [Vector2(0, 11)]
}
tracks/1/type = "value"
tracks/1/imported = false
tracks/1/enabled = true
tracks/1/path = NodePath("background/fly_1:region_rect")
tracks/1/interp = 1
tracks/1/loop_wrap = true
tracks/1/keys = {
"times": PackedFloat32Array(0),
"transitions": PackedFloat32Array(1),
"update": 0,
"values": [Rect2(17, 63, 8, 6)]
}
tracks/2/type = "value"
tracks/2/imported = false
tracks/2/enabled = true
tracks/2/path = NodePath("background/fly_1:position")
tracks/2/interp = 1
tracks/2/loop_wrap = true
tracks/2/keys = {
"times": PackedFloat32Array(0),
"transitions": PackedFloat32Array(1),
"update": 0,
"values": [Vector2(11, 7)]
}
tracks/3/type = "value"
tracks/3/imported = false
tracks/3/enabled = true
tracks/3/path = NodePath("background/fly_2:region_rect")
tracks/3/interp = 1
tracks/3/loop_wrap = true
tracks/3/keys = {
"times": PackedFloat32Array(0),
"transitions": PackedFloat32Array(1),
"update": 0,
"values": [Rect2(24, 63, 8, 6)]
}
tracks/4/type = "value"
tracks/4/imported = false
tracks/4/enabled = true
tracks/4/path = NodePath("background/fly_2:position")
tracks/4/interp = 1
tracks/4/loop_wrap = true
tracks/4/keys = {
"times": PackedFloat32Array(0),
"transitions": PackedFloat32Array(1),
"update": 0,
"values": [Vector2(42, 7)]
}
tracks/5/type = "value"
tracks/5/imported = false
tracks/5/enabled = true
tracks/5/path = NodePath("background/fly_fg:region_rect")
tracks/5/interp = 1
tracks/5/loop_wrap = true
tracks/5/keys = {
"times": PackedFloat32Array(0),
"transitions": PackedFloat32Array(1),
"update": 0,
"values": [Rect2(0, 64, 16, 16)]
}
tracks/6/type = "value"
tracks/6/imported = false
tracks/6/enabled = true
tracks/6/path = NodePath("background/fly_fg:position")
tracks/6/interp = 1
tracks/6/loop_wrap = true
tracks/6/keys = {
"times": PackedFloat32Array(0),
"transitions": PackedFloat32Array(1),
"update": 0,
"values": [Vector2(13, 25)]
}

[sub_resource type="Animation" id="Animation_s5aa4"]
resource_name = "default"
length = 5.6
loop_mode = 1
tracks/0/type = "value"
tracks/0/imported = false
tracks/0/enabled = true
tracks/0/path = NodePath("background/background:position")
tracks/0/interp = 1
tracks/0/loop_wrap = true
tracks/0/keys = {
"times": PackedFloat32Array(0, 1.6, 3.2, 5.6),
"transitions": PackedFloat32Array(1, 1, 1, 1),
"update": 0,
"values": [Vector2(0, 11), Vector2(7, 11), Vector2(9, 13), Vector2(0, 11)]
}
tracks/1/type = "value"
tracks/1/imported = false
tracks/1/enabled = true
tracks/1/path = NodePath("background/fly_1:region_rect")
tracks/1/interp = 1
tracks/1/loop_wrap = true
tracks/1/keys = {
"times": PackedFloat32Array(0, 0.1, 0.2, 0.3, 0.4, 0.5, 0.6, 0.7, 0.8, 0.9, 1, 1.1, 1.2, 1.3, 1.4, 1.5, 1.6, 1.7, 1.8, 1.9, 2, 2.1, 2.2, 2.3, 2.4, 2.5, 2.6, 2.7, 2.8, 2.9, 3, 3.1, 3.2, 3.3, 3.4, 3.5, 3.6, 3.7, 3.8, 3.9, 4, 4.1, 4.2, 4.3, 4.4, 4.5, 4.6, 4.7, 4.8, 4.9, 5, 5.1, 5.2, 5.3, 5.4, 5.5),
"transitions": PackedFloat32Array(1, 1, 1, 1, 1, 1, 1, 1, 1, 1, 1, 1, 1, 1, 1, 1, 1, 1, 1, 1, 1, 1, 1, 1, 1, 1, 1, 1, 1, 1, 1, 1, 1, 1, 1, 1, 1, 1, 1, 1, 1, 1, 1, 1, 1, 1, 1, 1, 1, 1, 1, 1, 1, 1, 1, 1),
"update": 1,
"values": [Rect2(17, 63, 8, 6), Rect2(24, 63, 8, 6), Rect2(17, 63, 8, 6), Rect2(24, 63, 8, 6), Rect2(17, 63, 8, 6), Rect2(24, 63, 8, 6), Rect2(17, 63, 8, 6), Rect2(24, 63, 8, 6), Rect2(17, 63, 8, 6), Rect2(24, 63, 8, 6), Rect2(17, 63, 8, 6), Rect2(24, 63, 8, 6), Rect2(17, 63, 8, 6), Rect2(24, 63, 8, 6), Rect2(17, 63, 8, 6), Rect2(24, 63, 8, 6), Rect2(17, 63, 8, 6), Rect2(24, 63, 8, 6), Rect2(17, 63, 8, 6), Rect2(24, 63, 8, 6), Rect2(17, 63, 8, 6), Rect2(24, 63, 8, 6), Rect2(17, 63, 8, 6), Rect2(24, 63, 8, 6), Rect2(17, 63, 8, 6), Rect2(24, 63, 8, 6), Rect2(17, 63, 8, 6), Rect2(24, 63, 8, 6), Rect2(17, 63, 8, 6), Rect2(24, 63, 8, 6), Rect2(17, 63, 8, 6), Rect2(24, 63, 8, 6), Rect2(17, 63, 8, 6), Rect2(24, 63, 8, 6), Rect2(17, 63, 8, 6), Rect2(24, 63, 8, 6), Rect2(17, 63, 8, 6), Rect2(24, 63, 8, 6), Rect2(17, 63, 8, 6), Rect2(24, 63, 8, 6), Rect2(17, 63, 8, 6), Rect2(24, 63, 8, 6), Rect2(17, 63, 8, 6), Rect2(24, 63, 8, 6), Rect2(17, 63, 8, 6), Rect2(24, 63, 8, 6), Rect2(17, 63, 8, 6), Rect2(24, 63, 8, 6), Rect2(17, 63, 8, 6), Rect2(24, 63, 8, 6), Rect2(17, 63, 8, 6), Rect2(24, 63, 8, 6), Rect2(17, 63, 8, 6), Rect2(24, 63, 8, 6), Rect2(17, 63, 8, 6), Rect2(24, 63, 8, 6)]
}
tracks/2/type = "value"
tracks/2/imported = false
tracks/2/enabled = true
tracks/2/path = NodePath("background/fly_1:position")
tracks/2/interp = 1
tracks/2/loop_wrap = true
tracks/2/keys = {
"times": PackedFloat32Array(0, 1.3, 2.8, 4.1, 5.6),
"transitions": PackedFloat32Array(1, 1, 1, 1, 1),
"update": 0,
"values": [Vector2(11, 12), Vector2(11, 14), Vector2(11, 12), Vector2(11, 14), Vector2(11, 12)]
}
tracks/3/type = "value"
tracks/3/imported = false
tracks/3/enabled = true
tracks/3/path = NodePath("background/fly_2:region_rect")
tracks/3/interp = 1
tracks/3/loop_wrap = true
tracks/3/keys = {
"times": PackedFloat32Array(0, 0.1, 0.2, 0.3, 0.4, 0.5, 0.6, 0.7, 0.8, 0.9, 1, 1.1, 1.2, 1.3, 1.4, 1.5, 1.6, 1.7, 1.8, 1.9, 2, 2.1, 2.2, 2.3, 2.4, 2.5, 2.6, 2.7, 2.8, 2.9, 3, 3.1, 3.2, 3.3, 3.4, 3.5, 3.6, 3.7, 3.8, 3.9, 4, 4.1, 4.2, 4.3, 4.4, 4.5, 4.6, 4.7, 4.8, 4.9, 5, 5.1, 5.2, 5.3, 5.4, 5.5, 5.6),
"transitions": PackedFloat32Array(1, 1, 1, 1, 1, 1, 1, 1, 1, 1, 1, 1, 1, 1, 1, 1, 1, 1, 1, 1, 1, 1, 1, 1, 1, 1, 1, 1, 1, 1, 1, 1, 1, 1, 1, 1, 1, 1, 1, 1, 1, 1, 1, 1, 1, 1, 1, 1, 1, 1, 1, 1, 1, 1, 1, 1, 1),
"update": 1,
"values": [Rect2(24, 63, 8, 6), Rect2(17, 63, 8, 6), Rect2(24, 63, 8, 6), Rect2(17, 63, 8, 6), Rect2(24, 63, 8, 6), Rect2(17, 63, 8, 6), Rect2(24, 63, 8, 6), Rect2(17, 63, 8, 6), Rect2(24, 63, 8, 6), Rect2(17, 63, 8, 6), Rect2(24, 63, 8, 6), Rect2(17, 63, 8, 6), Rect2(24, 63, 8, 6), Rect2(17, 63, 8, 6), Rect2(24, 63, 8, 6), Rect2(17, 63, 8, 6), Rect2(24, 63, 8, 6), Rect2(17, 63, 8, 6), Rect2(24, 63, 8, 6), Rect2(17, 63, 8, 6), Rect2(24, 63, 8, 6), Rect2(17, 63, 8, 6), Rect2(24, 63, 8, 6), Rect2(17, 63, 8, 6), Rect2(24, 63, 8, 6), Rect2(17, 63, 8, 6), Rect2(24, 63, 8, 6), Rect2(17, 63, 8, 6), Rect2(24, 63, 8, 6), Rect2(17, 63, 8, 6), Rect2(24, 63, 8, 6), Rect2(17, 63, 8, 6), Rect2(24, 63, 8, 6), Rect2(17, 63, 8, 6), Rect2(24, 63, 8, 6), Rect2(17, 63, 8, 6), Rect2(24, 63, 8, 6), Rect2(17, 63, 8, 6), Rect2(24, 63, 8, 6), Rect2(17, 63, 8, 6), Rect2(24, 63, 8, 6), Rect2(17, 63, 8, 6), Rect2(24, 63, 8, 6), Rect2(17, 63, 8, 6), Rect2(24, 63, 8, 6), Rect2(17, 63, 8, 6), Rect2(24, 63, 8, 6), Rect2(17, 63, 8, 6), Rect2(24, 63, 8, 6), Rect2(17, 63, 8, 6), Rect2(24, 63, 8, 6), Rect2(17, 63, 8, 6), Rect2(24, 63, 8, 6), Rect2(17, 63, 8, 6), Rect2(24, 63, 8, 6), Rect2(17, 63, 8, 6), Rect2(24, 63, 8, 6)]
}
tracks/4/type = "value"
tracks/4/imported = false
tracks/4/enabled = true
tracks/4/path = NodePath("background/fly_2:position")
tracks/4/interp = 1
tracks/4/loop_wrap = true
tracks/4/keys = {
"times": PackedFloat32Array(0, 1.5, 3, 4.5, 5.6),
"transitions": PackedFloat32Array(1, 1, 1, 1, 1),
"update": 0,
"values": [Vector2(42, 7), Vector2(39, 9), Vector2(42, 11), Vector2(45, 8), Vector2(42, 7)]
}
tracks/5/type = "value"
tracks/5/imported = false
tracks/5/enabled = true
tracks/5/path = NodePath("background/fly_fg:region_rect")
tracks/5/interp = 1
tracks/5/loop_wrap = true
tracks/5/keys = {
"times": PackedFloat32Array(0, 0.1, 0.2, 0.3, 0.4, 0.5, 0.6, 0.7, 0.8, 0.9, 1, 1.1, 1.2, 1.3, 1.4, 1.5, 1.6, 1.7, 1.8, 1.9, 2, 2.1, 2.2, 2.3, 2.4, 2.5, 2.6, 2.7, 2.8, 2.9, 3, 3.1, 3.2, 3.3, 3.4, 3.5, 3.6, 3.7, 3.8, 3.9, 4, 4.1, 4.2, 4.3, 4.4, 4.5, 4.6, 4.7, 4.8, 4.9, 5, 5.1, 5.2, 5.3, 5.4, 5.5, 5.6),
"transitions": PackedFloat32Array(1, 1, 1, 1, 1, 1, 1, 1, 1, 1, 1, 1, 1, 1, 1, 1, 1, 1, 1, 1, 1, 1, 1, 1, 1, 1, 1, 1, 1, 1, 1, 1, 1, 1, 1, 1, 1, 1, 1, 1, 1, 1, 1, 1, 1, 1, 1, 1, 1, 1, 1, 1, 1, 1, 1, 1, 1),
"update": 1,
"values": [Rect2(0, 64, 16, 16), Rect2(32, 58, 16, 16), Rect2(0, 64, 16, 16), Rect2(32, 58, 16, 16), Rect2(0, 64, 16, 16), Rect2(32, 58, 16, 16), Rect2(0, 64, 16, 16), Rect2(32, 58, 16, 16), Rect2(0, 64, 16, 16), Rect2(32, 58, 16, 16), Rect2(0, 64, 16, 16), Rect2(32, 58, 16, 16), Rect2(0, 64, 16, 16), Rect2(32, 58, 16, 16), Rect2(0, 64, 16, 16), Rect2(32, 58, 16, 16), Rect2(0, 64, 16, 16), Rect2(32, 58, 16, 16), Rect2(0, 64, 16, 16), Rect2(32, 58, 16, 16), Rect2(0, 64, 16, 16), Rect2(32, 58, 16, 16), Rect2(0, 64, 16, 16), Rect2(32, 58, 16, 16), Rect2(0, 64, 16, 16), Rect2(32, 58, 16, 16), Rect2(0, 64, 16, 16), Rect2(32, 58, 16, 16), Rect2(0, 64, 16, 16), Rect2(32, 58, 16, 16), Rect2(0, 64, 16, 16), Rect2(32, 58, 16, 16), Rect2(0, 64, 16, 16), Rect2(32, 58, 16, 16), Rect2(0, 64, 16, 16), Rect2(32, 58, 16, 16), Rect2(0, 64, 16, 16), Rect2(32, 58, 16, 16), Rect2(0, 64, 16, 16), Rect2(32, 58, 16, 16), Rect2(0, 64, 16, 16), Rect2(32, 58, 16, 16), Rect2(0, 64, 16, 16), Rect2(32, 58, 16, 16), Rect2(0, 64, 16, 16), Rect2(32, 58, 16, 16), Rect2(0, 64, 16, 16), Rect2(32, 58, 16, 16), Rect2(0, 64, 16, 16), Rect2(32, 58, 16, 16), Rect2(0, 64, 16, 16), Rect2(32, 58, 16, 16), Rect2(0, 64, 16, 16), Rect2(32, 58, 16, 16), Rect2(0, 64, 16, 16), Rect2(32, 58, 16, 16), Rect2(0, 64, 16, 16)]
}
tracks/6/type = "value"
tracks/6/imported = false
tracks/6/enabled = true
tracks/6/path = NodePath("background/fly_fg:position")
tracks/6/interp = 1
tracks/6/loop_wrap = true
tracks/6/keys = {
"times": PackedFloat32Array(0, 0.3, 0.6, 0.9, 1.2, 1.5, 2.9, 4.1, 4.4, 4.5, 4.6, 5.6),
"transitions": PackedFloat32Array(1, 1, 1, 1, 1, 1, 1, 1, 1, 1, 1, 1),
"update": 0,
"values": [Vector2(13, 25), Vector2(13, 27), Vector2(13, 25), Vector2(13, 27), Vector2(13, 25), Vector2(13, 27), Vector2(33, 17), Vector2(63, 23), Vector2(60, 78), Vector2(-11, 74), Vector2(-11, 27), Vector2(13, 25)]
}

[sub_resource type="AnimationLibrary" id="AnimationLibrary_84a7u"]
_data = {
"RESET": SubResource("Animation_noi60"),
"default": SubResource("Animation_s5aa4")
}

[node name="card_crap" type="Node2D"]

[node name="background" type="ColorRect" parent="."]
clip_contents = true
offset_right = 48.0
offset_bottom = 64.0
color = Color(0.372549, 0.643137, 0.596078, 1)

[node name="background" type="Sprite2D" parent="background"]
modulate = Color(0.705882, 0.913725, 0.8, 1)
position = Vector2(0, 11)
texture = ExtResource("1_m0aji")
region_enabled = true
region_rect = Rect2(0, 0, 96, 64)

[node name="crap" type="Sprite2D" parent="background"]
position = Vector2(24, 40)
texture = ExtResource("1_0kp77")
region_enabled = true
region_rect = Rect2(0, 80, 48, 48)

[node name="fly_1" type="Sprite2D" parent="background"]
position = Vector2(11, 7)
texture = ExtResource("1_0kp77")
region_enabled = true
region_rect = Rect2(17, 63, 8, 6)

[node name="fly_2" type="Sprite2D" parent="background"]
position = Vector2(42, 7)
texture = ExtResource("1_0kp77")
region_enabled = true
region_rect = Rect2(24, 63, 8, 6)

[node name="fly_fg" type="Sprite2D" parent="background"]
position = Vector2(13, 25)
texture = ExtResource("1_0kp77")
region_enabled = true
region_rect = Rect2(0, 64, 16, 16)

[node name="def" type="AnimationPlayer" parent="."]
autoplay = "default"
libraries = {
"": SubResource("AnimationLibrary_84a7u")
}
